1627490634.280071,0,0
1627490635.383707,0,0
1627490636.48224,0,0
1627490637.591832,0,0
1627490638.695814,0,0
1627490639.799967,0,0
1627490640.908737,0,0
1627490642.008583,0,0
1627490643.11274,0,0
1627490644.217018,0,0
1627490645.320566,0,0
1627490646.424782,0,0
1627490647.52841,0,0
1627490648.633066,0,0
1627490649.730937,0,0
1627490650.840757,0,0
1627490651.944854,0,0
1627490653.048687,0,0
1627490654.153133,0,0
1627490655.251422,0,0
1627490656.361739,0,0
1627490657.466561,0,0
1627490658.569645,0,0
1627490659.673898,0,0
1627490660.777809,0,0
1627490661.875845,0,0
1627490662.985691,0,0
1627490664.089834,0,0
1627490665.193938,0,0
1627490666.297894,0,0
1627490667.401934,0,0
1627490668.508591,0,0
1627490669.611607,0,0
1627490670.71393,0,0
1627490671.81838,0,0
1627490672.921966,0,0
1627490674.020161,0,0
1627490675.130158,0,0
1627490676.234478,0,0
1627490677.338426,0,0
1627490678.44236,0,0
1627490679.546607,0,0
1627490680.650464,0,0
1627490681.759168,0,0
1627490682.858907,0,0
1627490683.963179,0,0
1627490685.067704,0,0
1627490686.165029,0,0
1627490687.275417,0,0
1627490688.373738,0,0
1627490689.483267,0,0
1627490690.58761,0,0
1627490691.691216,0,0
1627490692.795233,0,0
1627490693.899745,0,0
1627490695.003561,0,0
1627490696.108577,0,0
1627490697.211989,0,0
1627490698.317918,0,0
1627490699.413762,0,0
1627490700.524087,0,0
1627490701.628058,0,0
1627490702.731791,0,0
1627490703.835861,0,0
1627490704.940067,0,0
1627490706.04398,0,0
1627490707.147958,0,0
1627490708.251835,0,0
1627490709.358588,0,0
1627490710.460098,0,0
1627490711.564491,0,0
1627490712.668071,0,0
1627490713.77342,0,0
1627490714.876473,0,0
1627490715.980219,0,0
1627490717.084272,0,0
1627490718.188656,0,0
1627490719.292177,0,0
1627490720.396693,0,0
1627490721.500834,0,0
1627490722.608409,0,0
1627490723.7089,0,0
1627490724.812895,0,0
1627490725.917057,0,0
1627490727.020646,0,0
1627490728.124797,0,0
1627490729.229056,0,0
1627490730.333405,0,0
1627490731.437405,0,0
1627490732.541331,0,0
1627490733.645735,0,0
1627490734.74762,0,0
1627490735.852471,0,0
1627490736.95192,0,0
1627490738.062029,0,0
1627490739.165992,0,0
1627490740.270644,0,0
1627490741.37471,0,0
1627490742.47834,0,0
1627490743.582663,0,0
1627490749.761842,0,0
1627490750.865899,0,0
1627490751.963653,0,0
1627490753.071244,0,0
1627490754.178032,0,0
1627490755.282112,0,0
1627490756.385902,0,0
1627490757.489957,0,0
1627490758.594301,0,0
1627490759.697935,0,0
1627490760.802224,0,0
1627490761.908495,0,0
1627490763.010534,0,0
1627490764.115021,0,0
1627490765.218555,0,0
1627490766.317002,0,0
1627490767.426541,0,0
1627490768.530545,0,0
1627490769.634591,0,0
1627490770.738915,0,0
1627490771.843334,0,0
1627490772.947092,0,0
1627490774.050612,0,0
1627490775.158391,0,0
1627490776.252957,0,0
1627490777.35839,0,0
1627490778.467229,0,0
1627490779.574009,0,0
1627490780.675216,0,0
1627490781.779757,0,0
1627490782.88424,0,0
1627490783.987765,0,0
1627490785.091781,0,0
1627490786.197303,0,0
1627490787.299764,0,0
1627490788.408285,0,0
1627490789.508235,0,0
1627490790.612049,0,0
1627490791.715981,0,0
1627490792.819968,0,0
1627490793.924099,0,0
1627490795.028078,0,0
1627490796.132004,0,0
1627490797.23614,0,0
1627490798.342914,0,0
1627490799.445334,0,0
1627490800.548367,0,0
1627490801.652362,0,0
1627490802.75837,0,0
1627490803.861615,0,0
1627490804.965153,0,0
1627490806.070298,0,0
1627490807.173038,0,0
1627490808.277577,0,0
1627490809.381357,0,0
1627490810.485518,0,0
1627490811.590698,0,0
1627490812.693208,0,0
1627490813.797562,0,0
1627490814.90176,0,0
1627490816.008273,0,0
1627490817.109928,0,0
1627490818.21436,0,0
1627490819.318043,0,0
1627490820.421812,0,0
1627490821.525754,0,0
1627490822.629889,0,0
1627490823.735698,0,0
1627490824.83811,0,0
1627490825.941667,0,0
1627490827.045891,0,0
1627490828.149872,0,0
1627490829.258268,0,0
1627490830.35812,0,0
1627490831.462197,0,0
1627490832.566374,0,0
1627490833.670682,0,0
1627490834.774459,0,0
1627490835.878672,0,0
1627490836.976762,0,0
1627490838.086282,0,0
1627490839.190069,0,0
1627490840.29421,0,0
1627490841.398249,0,0
1627490842.502452,0,0
1627490843.608102,0,0
1627490844.710925,0,0
1627490845.814848,0,0
1627490846.919369,0,0
1627490848.02411,0,0
1627490849.129249,0,0
1627490850.232927,0,0
1627490851.335874,0,0
1627490852.439687,0,0
1627490853.543833,0,0
1627490854.647458,0,0
1627490855.752042,0,0
1627490856.858042,0,0
1627490857.960345,0,0
1627490859.0646,0,0
1627490865.309374,0,0
1627490866.408048,0,0
1627490867.517454,0,0
1627490868.621894,0,0
1627490869.725702,0,0
1627490870.829228,0,0
1627490871.933148,0,0
1627490873.037555,0,0
1627490874.141444,0,0
1627490875.245517,0,0
1627490876.350922,0,0
1627490877.45812,0,0
1627490878.551955,0,0
1627490879.662218,0,0
1627490880.766004,0,0
1627490881.869609,0,0
1627490882.976223,0,0
1627490884.07833,0,0
1627490885.182357,0,0
1627490886.280235,0,0
1627490887.390281,0,0
1627490888.494698,0,0
1627490889.59252,0,0
1627490890.703892,0,0
1627490891.807992,0,0
1627490892.910672,0,0
1627490894.01501,0,0
1627490895.118744,0,0
1627490896.222967,0,0
1627490897.327041,0,0
1627490898.431226,0,0
1627490899.534978,0,0
1627490900.639498,0,0
1627490901.743976,0,0
1627490902.847813,0,0
1627490903.952055,0,0
1627490905.058037,0,0
1627490906.160071,0,0
1627490907.264897,0,0
1627490908.368349,0,0
1627490909.472085,0,0
1627490910.577375,0,0
1627490911.681067,0,0
1627490912.78567,0,0
1627490913.882765,0,0
1627490914.992828,0,0
1627490916.096929,0,0
1627490917.201067,0,0
1627490918.308006,0,0
1627490919.409244,0,0
1627490920.513407,0,0
1627490921.617586,0,0
1627490922.721342,0,0
1627490923.825633,0,0
1627490924.929082,0,0
1627490926.027364,0,0
1627490927.13729,0,0
1627490928.243445,0,0
1627490929.345782,0,0
1627490930.449648,0,0
1627490931.55781,0,0
1627490932.658059,0,0
1627490933.762522,0,0
1627490934.865762,0,0
1627490935.970156,0,0
1627490937.074376,0,0
1627490938.172828,0,0
1627490939.282745,0,0
1627490940.386586,0,0
1627490941.4917,0,0
1627490942.594189,0,0
1627490943.698674,0,0
1627490944.802715,0,0
1627490945.908066,0,0
1627490947.010734,0,0
1627490948.115011,0,0
1627490949.219071,0,0
1627490950.317037,0,0
1627490951.427094,0,0
1627490952.526668,0,0
1627490953.635346,0,0
1627490954.73932,0,0
1627490955.843539,0,0
1627490956.94841,0,0
1627490958.051846,0,0
1627490959.157934,0,0
1627490960.259911,0,0
1627490961.364198,0,0
1627490962.462316,0,0
1627490963.56631,0,0
1627490964.676,0,0
1627490965.780433,0,0
1627490966.884535,0,0
1627490967.988508,0,0
1627490969.092507,0,0
1627490970.197082,0,0
1627490971.300718,0,0
1627490972.407898,0,0
1627490973.508963,0,0
1627490974.607759,0,0
1627490990.866106,0,0
1627490991.97629,0,0
1627490993.080252,0,0
1627490994.184318,0,0
1627490995.287957,0,0
1627490996.392135,0,0
1627490997.496044,0,0
1627490998.600183,0,0
1627490999.707798,0,0
1627491000.808709,0,0
1627491001.912652,0,0
1627491003.017106,0,0
1627491004.114566,0,0
1627491005.225825,0,0
1627491006.328722,0,0
1627491007.432186,0,0
1627491008.536466,0,0
1627491009.640651,0,0
1627491010.744519,0,0
1627491011.848486,0,0
1627491012.952659,0,0
1627491014.057857,0,0
1627491015.160869,0,0
1627491016.259268,0,0
1627491017.369645,0,0
1627491018.473672,0,0
1627491019.577558,0,0
1627491020.681595,0,0
1627491021.785439,0,0
1627491022.889543,0,0
1627491023.996504,0,0
1627491025.09741,0,0
1627491026.201636,0,0
1627491027.307713,0,0
1627491028.407801,0,0
1627491029.507898,0,0
1627491030.617955,0,0
1627491031.721825,0,0
1627491032.82616,0,0
1627491033.930441,0,0
1627491035.034371,0,0
1627491036.138409,0,0
1627491037.242392,0,0
1627491038.346594,0,0
1627491039.450603,0,0
1627491040.54964,0,0
1627491041.652824,0,0
1627491042.76429,0,0
1627491043.866886,0,0
1627491044.97119,0,0
1627491046.075052,0,0
1627491047.179565,0,0
1627491048.284293,0,0
1627491049.387971,0,0
1627491050.492068,0,0
1627491051.595786,0,0
1627491052.700105,0,0
1627491053.807702,0,0
1627491054.90938,0,0
1627491056.012923,0,0
1627491057.116361,0,0
1627491058.220594,0,0
1627491059.324544,0,0
1627491060.429108,0,0
1627491061.532935,0,0
1627491062.637069,0,0
1627491063.741811,0,0
1627491065.944354,0,0
1627491067.04867,0,0
1627491068.158795,0,0
1627491069.261431,0,0
1627491070.365848,0,0
1627491071.47039,0,0
1627491072.574756,0,0
1627491073.677952,0,0
1627491074.781743,0,0
1627491075.885636,0,0
1627491076.989679,0,0
1627491078.08807,0,0
1627491079.198045,0,0
1627491080.301919,0,0
1627491081.407552,0,0
1627491082.509802,0,0
1627491083.614246,0,0
1627491084.718059,0,0
1627491085.821987,0,0
1627491086.926,0,0
1627491088.030121,0,0
1627491089.142536,0,0
1627491090.232364,0,0
1627491091.342258,0,0
1627491092.446517,0,0
1627491093.55066,0,0
1627491094.657867,0,0
1627491095.758444,0,0
1627491096.862812,0,0
1627491097.966985,0,0
1627491099.071259,0,0
1627491100.176246,0,0
1627491101.278724,0,0
1627491102.383294,0,0
1627491103.487356,0,0
1627491104.59103,0,0
1627491105.694835,0,0
1627491106.799376,0,0
1627491107.903458,0,0
1627491109.007605,0,0
1627491110.111294,0,0
1627491111.215443,0,0
1627491112.319432,0,0
1627491113.423428,0,0
1627491114.528022,0,0
1627491115.631543,0,0
1627491116.735672,0,0
1627491117.839766,0,0
1627491118.944021,0,0
1627491120.048268,0,0
1627491121.151938,0,0
1627491122.257539,0,0
1627491123.360434,0,0
1627491124.464234,0,0
1627491125.567975,0,0
1627491126.672428,0,0
1627491127.775875,0,0
1627491128.882375,0,0
1627491129.98441,0,0
1627491131.088715,0,0
1627491132.192359,0,0
1627491133.296653,0,0
1627491134.401023,0,0
1627491135.507551,0,0
1627491136.609188,0,0
1627491137.713339,0,0
1627491138.817636,0,0
1627491139.921447,0,0
1627491141.025755,0,0
1627491142.129803,0,0
1627491143.234073,0,0
1627491144.33832,0,0
1627491145.443173,0,0
1627491146.546247,0,0
1627491147.650281,0,0
1627491148.757436,0,0
1627491149.858319,0,0
1627491150.963193,0,0
1627491152.066979,0,0
1627491153.167037,0,0
1627491154.275428,0,0
1627491155.381429,0,0
1627491156.48395,0,0
1627491157.587393,0,0
1627491158.690852,0,0
1627491159.795274,0,0
1627491160.899147,0,0
1627491162.00318,0,0
1627491163.107398,0,0
1627491164.211177,0,0
1627491165.315783,0,0
1627491166.419292,0,0
1627491167.524686,0,0
1627491168.627842,0,0
1627491169.731673,0,0
1627491170.835736,0,0
1627491171.939661,0,0
1627491173.043917,0,0
1627491174.147937,0,0
1627491175.252521,0,0
1627491176.350426,0,0
1627491177.460514,0,0
1627491178.565416,0,0
1627491179.670164,0,0
1627491180.773574,0,0
1627491181.876889,0,0
1627491182.981298,0,0
1627491184.085347,0,0
1627491185.189296,0,0
1627491186.293364,0,0
1627491187.399337,0,0
1627491188.495311,0,0
1627491189.599462,0,0
1627491190.709225,0,0
1627491191.813145,0,0
1627491192.917259,0,0
1627491194.021288,0,0
1627491195.125458,0,0
1627491196.230125,0,0
1627491197.333925,0,0
1627491198.437836,0,0
1627491199.543704,0,0
1627491200.640593,0,0
1627491201.75058,0,0
1627491202.857841,0,0
1627491203.958471,0,0
1627491205.0625,0,0
1627491206.166396,0,0
1627491207.270542,0,0
1627491208.374861,0,0
1627491209.479362,0,0
1627491210.583463,0,0
1627491211.687412,0,0
1627491212.791471,0,0
1627491213.895167,0,0
1627491214.999025,0,0
1627491216.107362,0,0
1627491217.207349,0,0
1627491218.311282,0,0
1627491219.415092,0,0
1627491220.519282,0,0
1627491221.62347,0,0
1627491222.727771,0,0
1627491223.832149,0,0
1627491224.92974,0,0
1627491226.039996,0,0
1627491227.144222,0,0
1627491228.248332,0,0
1627491229.352339,0,0
1627491230.458102,0,0
1627491231.56081,0,0
1627491232.664429,0,0
1627491233.769183,0,0
1627491234.872456,0,0
1627491235.977876,0,0
1627491237.07491,0,0
1627491238.184731,0,0
1627491239.288774,0,0
1627491240.393294,0,0
1627491241.497141,0,0
1627491242.601091,0,0
1627491243.707293,0,0
1627491244.809174,0,0
1627491245.913933,0,0
1627491247.01754,0,0
1627491248.121662,0,0
1627491249.224813,0,0
1627491250.330049,0,0
1627491251.433979,0,0
1627491252.538249,0,0
1627491253.642113,0,0
1627491254.74695,0,0
1627491255.850686,0,0
1627491256.957351,0,0
1627491258.058924,0,0
1627491259.163152,0,0
1627491260.267235,0,0
1627491261.37176,0,0
1627491262.475407,0,0
1627491263.580194,0,0
1627491264.683853,0,0
1627491265.788248,0,0
1627491266.892175,0,0
1627491267.996219,0,0
1627491269.100092,0,0
1627491270.207244,0,0
1627491271.308383,0,0
1627491272.412311,0,0
1627491273.51638,0,0
1627491274.61464,0,0
1627491275.718718,0,0
1627491276.828732,0,0
1627491277.932753,0,0
1627491279.037559,0,0
1627491280.141258,0,0
1627491281.245501,0,0
1627491282.349556,0,0
1627491283.457344,0,0
1627491284.557944,0,0
1627491285.662235,0,0
1627491286.765992,0,0
1627491287.870036,0,0
1627491288.974274,0,0
1627491290.079144,0,0
1627491291.182905,0,0
1627491292.286932,0,0
1627491293.391059,0,0
1627491294.495113,0,0
1627491295.598666,0,0
1627491296.702955,0,0
1627491297.807086,0,0
1627491298.911774,0,0
1627491300.008654,0,0
1627491301.113769,0,0
1627491302.222582,0,0
1627491303.326619,0,0
1627491304.431014,0,0
1627491305.534831,0,0
1627491306.639082,0,0
1627491307.74306,0,0
1627491308.847334,0,0
1627491309.951556,0,0
1627491311.057114,0,0
1627491312.157299,0,0
1627491313.264266,0,0
1627491314.367896,0,0
1627491315.472296,0,0
1627491316.576049,0,0
1627491317.67975,0,0
1627491318.784473,0,0
1627491319.888194,0,0
1627491320.992496,0,0
1627491322.096341,0,0
1627491323.196159,0,0
1627491324.298984,0,0
1627491325.408845,0,0
1627491326.513037,0,0
1627491327.617007,0,0
1627491328.720946,0,0
1627491329.825426,0,0
1627491330.931035,0,0
1627491332.033524,0,0
1627491333.137489,0,0
1627491334.241822,0,0
1627491335.346125,0,0
1627491336.450041,0,0
1627491337.557072,0,0
1627491338.658548,0,0
1627491339.763323,0,0
1627491340.866803,0,0
1627491341.970615,0,0
1627491343.074871,0,0
1627491344.179733,0,0
1627491345.282748,0,0
1627491346.387564,0,0
1627491347.491617,0,0
1627491348.589433,0,0
1627491349.693715,0,0
1627491350.806947,0,0
1627491351.907925,0,0
1627491353.012167,0,0
1627491354.115792,0,0
1627491355.21979,0,0
1627491356.323902,0,0
1627491357.428203,0,0
1627491358.532047,0,0
1627491359.636441,0,0
1627491360.734595,0,0
1627491361.844525,0,0
1627491362.948406,0,0
1627491364.052823,0,0
1627491365.157019,0,0
1627491366.261185,0,0
1627491367.365728,0,0
1627491368.469158,0,0
1627491369.57395,0,0
1627491370.677263,0,0
1627491371.781549,0,0
1627491372.880861,0,0
1627491373.985992,0,0
1627491375.094281,0,0
1627491376.198512,0,0
1627491377.302707,0,0
1627491378.406958,0,0
1627491379.510827,0,0
1627491380.614996,0,0
1627491381.718673,0,0
1627491382.822891,0,0
1627491383.927,0,0
1627491385.031951,0,0
1627491386.129544,0,0
1627491387.239317,0,0
1627491388.344094,0,0
1627491389.44756,0,0
1627491390.552056,0,0
1627491391.656939,0,0
1627491392.760186,0,0
1627491393.864352,0,0
1627491394.968203,0,0
1627491396.072214,0,0
1627491397.176409,0,0
1627491398.281106,0,0
1627491399.384828,0,0
1627491400.488994,0,0
1627491401.593559,0,0
1627491402.697094,0,0
1627491403.800986,0,0
1627491404.9069,0,0
1627491406.010499,0,0
1627491407.113119,0,0
1627491408.217581,0,0
1627491409.322371,0,0
1627491410.42571,0,0
1627491411.529608,0,0
1627491412.633967,0,0
1627491413.738135,0,0
1627491414.842107,0,0
1627491415.946587,0,0
1627491417.050316,0,0
1627491418.157347,0,0
1627491419.258963,0,0
1627491420.363739,0,0
1627491421.467296,0,0
1627491422.565149,0,0
1627491423.669124,0,0
1627491424.778806,0,0
1627491425.883028,0,0
1627491426.987701,0,0
1627491428.091857,0,0
1627491429.196113,0,0
1627491430.299475,0,0
1627491431.406944,0,0
1627491432.507752,0,0
1627491433.611715,0,0
1627491434.710333,0,0
1627491435.819514,0,0
1627491436.923608,0,0
1627491438.02747,0,0
1627491439.131583,0,0
1627491440.235984,0,0
1627491441.340154,0,0
1627491442.444853,0,0
1627491443.550038,0,0
1627491444.652667,0,0
1627491445.760725,0,0
1627491446.861017,0,0
1627491447.965359,0,0
1627491449.069661,0,0
1627491450.173301,0,0
1627491451.277415,0,0
1627491452.381919,0,0
1627491453.486271,0,0
1627491454.589701,0,0
1627491455.693862,0,0
1627491456.797995,0,0
1627491457.90186,0,0
1627491459.006831,0,0
1627491460.109847,0,0
1627491461.2139,0,0
1627491462.317825,0,0
1627491463.421981,0,0
1627491464.525948,0,0
1627491465.630746,0,0
1627491466.734335,0,0
1627491467.838336,0,0
1627491468.942779,0,0
1627491470.041016,0,0
1627491471.151007,0,0
1627491472.256899,0,0
1627491473.359597,0,0
1627491474.464059,0,0
1627491475.567748,0,0
1627491476.671738,0,0
1627491477.776136,0,0
1627491478.879895,0,0
1627491479.984153,0,0
1627491481.0884,0,0
1627491482.19278,0,0
1627491483.296662,0,0
1627491484.400409,0,0
1627491485.506672,0,0
1627491486.608867,0,0
1627491487.712932,0,0
1627491489.921051,0,0
1627491491.025522,0,0
1627491492.129135,0,0
1627491493.233528,0,0
1627491494.331609,0,0
1627491495.43555,0,0
1627491496.545544,0,0
1627491497.649579,0,0
1627491498.756724,0,0
1627491499.858633,0,0
1627491500.962163,0,0
1627491502.066208,0,0
1627491503.16977,0,0
1627491504.274574,0,0
1627491505.38022,0,0
1627491506.476706,0,0
1627491507.588493,0,0
1627491508.691318,0,0
1627491509.795257,0,0
1627491510.898762,0,0
1627491512.006646,0,0
1627491513.107566,0,0
1627491514.211557,0,0
1627491515.315795,0,0
1627491516.419575,0,0
1627491517.52433,0,0
1627491518.622581,0,0
1627491519.732043,0,0
1627491520.83612,0,0
1627491521.939893,0,0
1627491523.04401,0,0
1627491524.148418,0,0
1627491525.252144,0,0
1627491526.357694,0,0
1627491527.460513,0,0
1627491528.564764,0,0
1627491529.668918,0,0
1627491530.772732,0,0
1627491531.876656,0,0
1627491532.980742,0,0
1627491534.084585,0,0
1627491535.19023,0,0
1627491536.293587,0,0
1627491537.397668,0,0
1627491538.501288,0,0
1627491539.606724,0,0
1627491540.710042,0,0
1627491541.809242,0,0
1627491542.917798,0,0
1627491544.022569,0,0
1627491545.126202,0,0
1627491546.230512,0,0
1627491547.33436,0,0
1627491548.438555,0,0
1627491549.543261,0,0
1627491550.647006,0,0
1627491551.751531,0,0
1627491552.856771,0,0
1627491553.960048,0,0
1627491555.064331,0,0
1627491556.16799,0,0
1627491557.266356,0,0
1627491558.376125,0,0
1627491559.480026,0,0
1627491560.584071,0,0
1627491561.689301,0,0
1627491562.792919,0,0
1627491563.896922,0,0
1627491564.997065,0,0
1627491566.099198,0,0
1627491567.209327,0,0
1627491568.307266,0,0
1627491569.417006,0,0
1627491570.5209,0,0
1627491571.625065,0,0
1627491572.729003,0,0
1627491573.83325,0,0
1627491574.936934,0,0
1627491576.040639,0,0
1627491577.138856,0,0
1627491578.243013,0,0
1627491579.368916,0,0
1627491580.457486,0,0
1627491581.561867,0,0
1627491582.666313,0,0
1627491583.769937,0,0
1627491584.873847,0,0
1627491585.977954,0,0
1627491587.082017,0,0
1627491588.186736,0,0
1627491589.290552,0,0
1627491590.394678,0,0
1627491591.498897,0,0
1627491592.606628,0,0
1627491593.707163,0,0
1627491594.811383,0,0
1627491595.91552,0,0
1627491597.019453,0,0
1627491598.123242,0,0
1627491599.228468,0,0
1627491600.333029,0,0
1627491601.430109,0,0
1627491602.539985,0,0
1627491603.644077,0,0
1627491604.748359,0,0
1627491605.852282,0,0
1627491606.957124,0,0
1627491608.060433,0,0
1627491609.1653,0,0
1627491610.268615,0,0
1627491611.372434,0,0
1627491612.476987,0,0
1627491613.581278,0,0
1627491614.68491,0,0
1627491615.789494,0,0
1627491616.894215,0,0
1627491617.998857,0,0
1627491619.106612,0,0
1627491620.206587,0,0
1627491621.310323,0,0
1627491622.414449,0,0
1627491623.518352,0,0
1627491624.623122,0,0
1627491625.72094,0,0
1627491626.830893,0,0
1627491627.935525,0,0
1627491629.039006,0,0
1627491630.142967,0,0
1627491631.246939,0,0
1627491632.351277,0,0
1627491633.45636,0,0
1627491634.560348,0,0
1627491635.664079,0,0
1627491636.767645,0,0
1627491637.871647,0,0
1627491638.976133,0,0
1627491640.080479,0,0
1627491641.185187,0,0
1627491642.289206,0,0
1627491643.393244,0,0
1627491644.497206,0,0
1627491645.601158,0,0
1627491646.706423,0,0
1627491647.809258,0,0
1627491648.907245,0,0
1627491650.017485,0,0
1627491651.121841,0,0
1627491652.225558,0,0
1627491653.329999,0,0
1627491654.434136,0,0
1627491655.538102,0,0
1627491656.642191,0,0
1627491657.746449,0,0
1627491658.850421,0,0
1627491659.956682,0,0
1627491661.05635,0,0
1627491662.163456,0,0
1627491663.267314,0,0
1627491664.371171,0,0
1627491665.475738,0,0
1627491666.579423,0,0
1627491667.683452,0,0
1627491668.782049,0,0
1627491669.892145,0,0
1627491670.997172,0,0
1627491672.100802,0,0
1627491673.206711,0,0
1627491674.309303,0,0
1627491675.413434,0,0
1627491676.517193,0,0
1627491677.621518,0,0
1627491678.72596,0,0
1627491679.824091,0,0
1627491680.933631,0,0
1627491682.038609,0,0
1627491683.142663,0,0
1627491684.248176,0,0
1627491685.350805,0,0
1627491686.456439,0,0
1627491687.55951,0,0
1627491688.663381,0,0
1627491689.767148,0,0
1627491690.87246,0,0
1627491691.97561,0,0
1627491693.079743,0,0
1627491694.184757,0,0
1627491695.288352,0,0
1627491696.386723,0,0
1627491697.490591,0,0
1627491698.600653,0,0
1627491699.706314,0,0
1627491700.808764,0,0
1627491701.913081,0,0
1627491703.017305,0,0
1627491704.121159,0,0
1627491705.225177,0,0
1627491706.329943,0,0
1627491707.433511,0,0
1627491708.538878,0,0
1627491709.636087,0,0
1627491710.746441,0,0
1627491711.850616,0,0
1627491712.956314,0,0
1627491714.058858,0,0
1627491715.162954,0,0
1627491716.267207,0,0
1627491717.371004,0,0
1627491718.47502,0,0
1627491719.579659,0,0
1627491720.677662,0,0
1627491721.781773,0,0
1627491722.892321,0,0
1627491723.996111,0,0
1627491725.100323,0,0
1627491726.206186,0,0
1627491727.307733,0,0
1627491728.412145,0,0
1627491729.516064,0,0
1627491730.619836,0,0
1627491731.72398,0,0
1627491732.829568,0,0
1627491733.932586,0,0
1627491735.036505,0,0
1627491736.14055,0,0
1627491737.244855,0,0
1627491738.349266,0,0
1627491739.456256,0,0
1627491740.557411,0,0
1627491741.661233,0,0
1627491742.765526,0,0
1627491743.870225,0,0
1627491744.967977,0,0
1627491746.077754,0,0
1627491747.182888,0,0
1627491748.288421,0,0
1627491749.390523,0,0
1627491750.495263,0,0
1627491751.59901,0,0
1627491752.706234,0,0
1627491753.80662,0,0
1627491754.910641,0,0
1627491756.01473,0,0
1627491757.113745,0,0
1627491758.223285,0,0
1627491759.327268,0,0
1627491760.431355,0,0
1627491761.535701,0,0
1627491763.743799,0,0
1627491764.848475,0,0
1627491765.956273,0,0
1627491767.056236,0,0
1627491768.160197,0,0
1627491769.258757,0,0
1627491770.369064,0,0
1627491771.473565,0,0
1627491772.577546,0,0
1627491773.681472,0,0
1627491774.78547,0,0
1627491775.88992,0,0
1627491776.993552,0,0
1627491778.097753,0,0
1627491779.20602,0,0
1627491780.299834,0,0
1627491781.406195,0,0
1627491782.514279,0,0
1627491783.618087,0,0
1627491784.722153,0,0
1627491785.826377,0,0
1627491786.930968,0,0
1627491788.034734,0,0
1627491789.139067,0,0
1627491790.243531,0,0
1627491791.341408,0,0
1627491792.451914,0,0
1627491793.556655,0,0
1627491794.661202,0,0
1627491795.763991,0,0
1627491796.867932,0,0
1627491797.972225,0,0
1627491799.076428,0,0
1627491800.180734,0,0
1627491801.2845,0,0
1627491802.384167,0,0
1627491803.493394,0,0
1627491804.595395,0,0
1627491805.695948,0,0
1627491806.805955,0,0
1627491807.910046,0,0
1627491809.013921,0,0
1627491810.117906,0,0
1627491811.22203,0,0
1627491812.32653,0,0
1627491813.430675,0,0
1627491814.535575,0,0
1627491815.639515,0,0
1627491816.743611,0,0
1627491817.847447,0,0
1627491818.955902,0,0
1627491820.055919,0,0
1627491821.160152,0,0
1627491822.264018,0,0
1627491823.368167,0,0
1627491824.472022,0,0
1627491825.576966,0,0
1627491826.680569,0,0
1627491827.784953,0,0
1627491828.888832,0,0
1627491829.993058,0,0
1627491831.09754,0,0
1627491832.20154,0,0
1627491833.305845,0,0
1627491834.409896,0,0
1627491835.514521,0,0
1627491836.61885,0,0
1627491837.723007,0,0
1627491838.826749,0,0
1627491839.932141,0,0
1627491841.035171,0,0
1627491842.139316,0,0
1627491843.243195,0,0
1627491844.347375,0,0
1627491845.451657,0,0
1627491846.557736,0,0
1627491847.660838,0,0
1627491848.764509,0,0
1627491849.868826,0,0
1627491850.972954,0,0
1627491852.077491,0,0
1627491853.181216,0,0
1627491854.285182,0,0
1627491855.390639,0,0
1627491856.493976,0,0
1627491857.598288,0,0
1627491858.70557,0,0
1627491859.806627,0,0
1627491860.910783,0,0
1627491862.014673,0,0
1627491863.119279,0,0
1627491864.223499,0,0
1627491865.321489,0,0
1627491866.432208,0,0
1627491867.535627,0,0
1627491868.641891,0,0
1627491869.744761,0,0
1627491870.848281,0,0
1627491871.955453,0,0
1627491873.057197,0,0
1627491874.160952,0,0
1627491875.265014,0,0
1627491876.36956,0,0
1627491877.467362,0,0
1627491878.577958,0,0
1627491879.68191,0,0
1627491880.78632,0,0
1627491881.891637,0,0
1627491882.994983,0,0
1627491884.099207,0,0
1627491885.205352,0,0
1627491886.307864,0,0
1627491887.411563,0,0
1627491888.515795,0,0
1627491889.613692,0,0
1627491890.718086,0,0
1627491891.823866,0,0
1627491892.931928,0,0
1627491894.036349,0,0
1627491895.14086,0,0
1627491896.244594,0,0
1627491897.348828,0,0
1627491898.455133,0,0
1627491899.557058,0,0
1627491900.661386,0,0
1627491901.765845,0,0
1627491902.864307,0,0
1627491903.973962,0,0
1627491905.078092,0,0
1627491906.182856,0,0
1627491907.287072,0,0
1627491908.391269,0,0
1627491909.495328,0,0
1627491910.599586,0,0
1627491911.705231,0,0
1627491912.807663,0,0
1627491913.921803,0,0
1627491915.016049,0,0
1627491916.120294,0,0
1627491917.224491,0,0
1627491918.328781,0,0
1627491919.432912,0,0
1627491920.537012,0,0
1627491921.641253,0,0
1627491922.745397,0,0
1627491923.849433,0,0
1627491924.955094,0,0
1627491926.058537,0,0
1627491927.156298,0,0
1627491928.266351,0,0
1627491929.370547,0,0
1627491930.474658,0,0
1627491931.579415,0,0
1627491932.683295,0,0
1627491933.787496,0,0
1627491934.891768,0,0
1627491935.996894,0,0
1627491937.104965,0,0
1627491938.205302,0,0
1627491939.308758,0,0
1627491940.407034,0,0
1627491941.516864,0,0
1627491942.621291,0,0
1627491943.725159,0,0
1627491944.830415,0,0
1627491945.932846,0,0
1627491947.036909,0,0
1627491948.141185,0,0
1627491949.245091,0,0
1627491950.349615,0,0
1627491951.447545,0,0
1627491952.55818,0,0
1627491953.662218,0,0
1627491954.766373,0,0
1627491955.870494,0,0
1627491956.974849,0,0
1627491958.079149,0,0
1627491959.183683,0,0
1627491960.287116,0,0
1627491961.392098,0,0
1627491962.495823,0,0
1627491963.600326,0,0
1627491964.704506,0,0
1627491965.808249,0,0
1627491966.912627,0,0
1627491968.016665,0,0
1627491969.120946,0,0
1627491970.226247,0,0
1627491971.329137,0,0
1627491972.433111,0,0
1627491973.537757,0,0
1627491974.64183,0,0
1627491975.744033,0,0
1627491976.844395,0,0
1627491977.955076,0,0
1627491979.058613,0,0
1627491980.162789,0,0
1627491981.267082,0,0
1627491982.371052,0,0
1627491983.475483,0,0
1627491984.580673,0,0
1627491985.684397,0,0
1627491986.788679,0,0
1627491987.893208,0,0
1627491988.990808,0,0
1627491990.104253,0,0
1627491991.205427,0,0
1627491992.309184,0,0
1627491993.414152,0,0
1627491994.517758,0,0
1627491995.62159,0,0
1627491996.729011,0,0
1627491997.833468,0,0
1627491998.93627,0,0
1627492000.038468,0,0
1627492001.136673,0,0
1627492002.246926,0,0
1627492003.354297,0,0
1627492004.455324,0,0
1627492005.559762,0,0
1627492006.663807,0,0
1627492007.767844,0,0
1627492008.872191,0,0
1627492009.977013,0,0
1627492011.080424,0,0
1627492012.18466,0,0
1627492013.289026,0,0
1627492014.387112,0,0
1627492015.49751,0,0
1627492016.604416,0,0
1627492017.70621,0,0
1627492018.810239,0,0
1627492019.914136,0,0
1627492021.018342,0,0
1627492022.122563,0,0
1627492023.226618,0,0
1627492024.330893,0,0
1627492025.430673,0,0
1627492026.537376,0,0
1627492027.643278,0,0
1627492028.748125,0,0
1627492029.85398,0,0
1627492030.95619,0,0
1627492032.0603,0,0
1627492033.164255,0,0
1627492034.269476,0,0
1627492035.372904,0,0
1627492036.476825,0,0
1627492037.581549,0,0
1627492038.679731,0,0
1627492039.789513,0,0
1627492040.893389,0,0
1627492041.997808,0,0
1627492043.103798,0,0
1627492044.206548,0,0
1627492045.310029,0,0
1627492046.414215,0,0
1627492047.518362,0,0
1627492048.622382,0,0
1627492049.721065,0,0
1627492050.824887,0,0
1627492051.934871,0,0
1627492053.038906,0,0
1627492054.143147,0,0
1627492055.247163,0,0
1627492056.353687,0,0
1627492057.455343,0,0
1627492058.559898,0,0
1627492059.66422,0,0
1627492060.768229,0,0
1627492061.872047,0,0
1627492062.977292,0,0
1627492064.080256,0,0
1627492065.178712,0,0
1627492066.289087,0,0
1627492067.392628,0,0
1627492068.497457,0,0
1627492069.603687,0,0
1627492070.705614,0,0
1627492071.809279,0,0
1627492072.914157,0,0
1627492074.011784,0,0
1627492075.12141,0,0
1627492076.225812,0,0
1627492077.330826,0,0
1627492078.434217,0,0
1627492079.538605,0,0
1627492080.642481,0,0
1627492081.746741,0,0
1627492082.854032,0,0
1627492083.955703,0,0
1627492085.059277,0,0
1627492086.157227,0,0
1627492087.267163,0,0
1627492088.371318,0,0
1627492089.475229,0,0
1627492090.580059,0,0
1627492091.68432,0,0
1627492092.788276,0,0
1627492093.893579,0,0
1627492125.543927,0,0
1627492126.648053,0,0
1627492127.753127,0,0
1627492128.856742,0,0
1627492129.960916,0,0
1627492131.065077,0,0
1627492132.169483,0,0
1627492133.273002,0,0
1627492134.377588,0,0
1627492135.481768,0,0
1627492136.587989,0,0
1627492137.684645,0,0
1627492138.795304,0,0
1627492139.898921,0,0
1627492141.003367,0,0
1627492142.107861,0,0
1627492143.211217,0,0
1627492144.315438,0,0
1627492145.419443,0,0
1627492146.523929,0,0
1627492147.62774,0,0
1627492148.730826,0,0
1627492149.830246,0,0
1627492150.940451,0,0
1627492152.044759,0,0
1627492153.152798,0,0
1627492154.25348,0,0
1627492155.357864,0,0
1627492156.461753,0,0
1627492157.565902,0,0
1627492158.669759,0,0
1627492159.774068,0,0
1627492160.878429,0,0
1627492161.982079,0,0
1627492163.087103,0,0
1627492164.19086,0,0
1627492165.295362,0,0
1627492166.4028,0,0
1627492167.503439,0,0
1627492168.607438,0,0
1627492169.711613,0,0
1627492170.815901,0,0
1627492171.919936,0,0
1627492173.018491,0,0
1627492174.127917,0,0
1627492175.234157,0,0
1627492176.337041,0,0
1627492177.441691,0,0
1627492178.545621,0,0
1627492179.652554,0,0
1627492180.753923,0,0
1627492181.858418,0,0
1627492182.962313,0,0
1627492184.066328,0,0
1627492185.165231,0,0
1627492186.275096,0,0
1627492187.379186,0,0
1627492188.483212,0,0
1627492189.587594,0,0
1627492190.691389,0,0
1627492191.795918,0,0
1627492192.902489,0,0
1627492194.004324,0,0
1627492195.108395,0,0
1627492196.211123,0,0
1627492197.310593,0,0
1627492198.42085,0,0
1627492199.525085,0,0
1627492200.630497,0,0
1627492201.733352,0,0
1627492202.837972,0,0
1627492203.941997,0,0
1627492205.045815,0,0
1627492206.152451,0,0
1627492207.254077,0,0
1627492208.359712,0,0
1627492209.456771,0,0
1627492210.567267,0,0
1627492211.671127,0,0
1627492212.77496,0,0
1627492213.879414,0,0
1627492214.977518,0,0
1627492216.087645,0,0
1627492217.191684,0,0
1627492218.296068,0,0
1627492219.40222,0,0
1627492220.505199,0,0
1627492222.712984,0,0
1627492223.817353,0,0
1627492224.923424,0,0
1627492226.020066,0,0
1627492227.129755,0,0
1627492228.234019,0,0
1627492229.338766,0,0
1627492230.442665,0,0
1627492231.547113,0,0
1627492232.645165,0,0
1627492233.752044,0,0
1627492234.859575,0,0
1627492235.963895,0,0
1627492237.084441,0,0
1627492238.172292,0,0
1627492239.276212,0,0
1627492240.380686,0,0
1627492241.485129,0,0
1627492242.589249,0,0
1627492243.693579,0,0
1627492244.802209,0,0
1627492245.902147,0,0
1627492247.00627,0,0
1627492248.110233,0,0
1627492249.214634,0,0
1627492250.319002,0,0
1627492251.423097,0,0
1627492252.527378,0,0
1627492253.631658,0,0
1627492254.735784,0,0
1627492255.839976,0,0
1627492256.944981,0,0
1627492258.052097,0,0
1627492259.152978,0,0
1627492260.257493,0,0
1627492261.361348,0,0
1627492262.466598,0,0
1627492263.570629,0,0
1627492264.674106,0,0
1627492265.778529,0,0
1627492266.88216,0,0
1627492267.986801,0,0
1627492269.084507,0,0
1627492270.194739,0,0
1627492271.301848,0,0
1627492272.403075,0,0
1627492273.50784,0,0
1627492274.61311,0,0
1627492275.716039,0,0
1627492276.820047,0,0
1627492277.924556,0,0
1627492279.02821,0,0
1627492280.132917,0,0
1627492281.236537,0,0
1627492282.341034,0,0
1627492283.444771,0,0
1627492285.653701,0,0
1627492286.758058,0,0
1627492287.861697,0,0
1627492288.966173,0,0
1627492290.070325,0,0
1627492291.17482,0,0
1627492292.279572,0,0
1627492293.377486,0,0
1627492294.487406,0,0
1627492295.591449,0,0
1627492296.695995,0,0
1627492297.801584,0,0
1627492298.904752,0,0
1627492300.008806,0,0
1627492301.112915,0,0
1627492302.217273,0,0
1627492303.321309,0,0
1627492304.421939,0,0
1627492305.523771,0,0
1627492306.634142,0,0
1627492307.738494,0,0
1627492308.842499,0,0
1627492311.051457,0,0
1627492312.154918,0,0
1627492313.259616,0,0
1627492314.363642,0,0
1627492315.46806,0,0
1627492316.566307,0,0
1627492317.676038,0,0
1627492318.780677,0,0
1627492319.884923,0,0
1627492320.989094,0,0
1627492322.093888,0,0
1627492323.20141,0,0
1627492324.301874,0,0
1627492325.405981,0,0
1627492326.510022,0,0
1627492327.61423,0,0
1627492328.718029,0,0
1627492329.822115,0,0
1627492330.92663,0,0
1627492332.030962,0,0
1627492333.135325,0,0
1627492334.239645,0,0
1627492335.344199,0,0
1627492336.451285,0,0
1627492337.546198,0,0
1627492338.65618,0,0
1627492339.760131,0,0
1627492340.858767,0,0
1627492341.968822,0,0
1627492343.07283,0,0
1627492344.177499,0,0
1627492345.281652,0,0
1627492346.385798,0,0
1627492347.489868,0,0
1627492348.588482,0,0
1627492349.701222,0,0
1627492350.803515,0,0
1627492351.909289,0,0
1627492353.005228,0,0
1627492354.115522,0,0
1627492355.219872,0,0
1627492356.324184,0,0
1627492357.428417,0,0
1627492358.532381,0,0
1627492359.643212,0,0
1627492360.741034,0,0
1627492361.845183,0,0
1627492362.95094,0,0
1627492364.051136,0,0
1627492365.152087,0,0
1627492366.261836,0,0
1627492367.366082,0,0
1627492368.470417,0,0
1627492369.575489,0,0
1627492370.679181,0,0
1627492371.78308,0,0
1627492372.88816,0,0
1627492373.991452,0,0
1627492375.101013,0,0
1627492376.201506,0,0
1627492377.300921,0,0
1627492378.408533,0,0
1627492379.512045,0,0
1627492380.616445,0,0
1627492381.720514,0,0
1627492382.824965,0,0
1627492383.928967,0,0
1627492385.033326,0,0
1627492386.137277,0,0
1627492387.241457,0,0
1627492388.350914,0,0
1627492389.444066,0,0
1627492390.554312,0,0
1627492391.658656,0,0
1627492392.762941,0,0
1627492393.867404,0,0
1627492394.970955,0,0
1627492396.075519,0,0
1627492397.179833,0,0
1627492398.283909,0,0
1627492399.38801,0,0
1627492400.49296,0,0
1627492401.590644,0,0
1627492402.700937,0,0
1627492403.805204,0,0
1627492404.909658,0,0
1627492406.013533,0,0
1627492407.117755,0,0
1627492408.221829,0,0
1627492409.325988,0,0
1627492410.430178,0,0
1627492411.534666,0,0
1627492412.632693,0,0
1627492413.737022,0,0
1627492414.850515,0,0
1627492415.951752,0,0
1627492417.055921,0,0
1627492418.160583,0,0
1627492419.264351,0,0
1627492420.368866,0,0
1627492421.473049,0,0
1627492422.57698,0,0
1627492423.675915,0,0
1627492424.779349,0,0
1627492425.889129,0,0
1627492426.993999,0,0
1627492428.10044,0,0
1627492429.202746,0,0
1627492430.306928,0,0
1627492431.4116,0,0
1627492432.514997,0,0
1627492433.6195,0,0
1627492434.723482,0,0
1627492435.828319,0,0
1627492436.933988,0,0
1627492438.037029,0,0
1627492439.141751,0,0
1627492440.245612,0,0
1627492441.350363,0,0
1627492442.453777,0,0
1627492443.558338,0,0
1627492444.66174,0,0
1627492445.766242,0,0
1627492446.870343,0,0
1627492447.974285,0,0
1627492449.072635,0,0
1627492450.183368,0,0
1627492451.287429,0,0
1627492452.391915,0,0
1627492453.49573,0,0
1627492454.600758,0,0
1627492455.704792,0,0
1627492456.808873,0,0
1627492457.912793,0,0
1627492459.016461,0,0
1627492460.115351,0,0
1627492461.226689,0,0
1627492462.329352,0,0
1627492463.433404,0,0
1627492464.537612,0,0
1627492465.641765,0,0
1627492466.750378,0,0
1627492467.850311,0,0
1627492468.955096,0,0
1627492470.058709,0,0
1627492471.164313,0,0
1627492472.261363,0,0
1627492473.371539,0,0
1627492474.475785,0,0
1627492475.580213,0,0
1627492476.684292,0,0
1627492477.78813,0,0
1627492478.89271,0,0
1627492480.000011,0,0
1627492481.101539,0,0
1627492482.205813,0,0
1627492483.309926,0,0
1627492484.408041,0,0
1627492485.51775,0,0
1627492486.622107,0,0
1627492487.726354,0,0
1627492488.830244,0,0
1627492489.93483,0,0
1627492491.039096,0,0
1627492492.142938,0,0
1627492493.249874,0,0
1627492494.351909,0,0
1627492495.456657,0,0
1627492496.554159,0,0
1627492497.664776,0,0
1627492498.768104,0,0
1627492499.872153,0,0
1627492500.976748,0,0
1627492502.080766,0,0
1627492503.185069,0,0
1627492504.289813,0,0
1627492505.394012,0,0
1627492506.499826,0,0
1627492507.602316,0,0
1627492508.700986,0,0
1627492509.810774,0,0
1627492510.914824,0,0
1627492512.019271,0,0
1627492513.123402,0,0
1627492514.227735,0,0
1627492515.332322,0,0
1627492516.436905,0,0
1627492517.541465,0,0
1627492518.649668,0,0
1627492519.749912,0,0
1627492520.849636,0,0
1627492521.958569,0,0
1627492523.063247,0,0
1627492524.167548,0,0
1627492525.271395,0,0
1627492526.375895,0,0
1627492527.48009,0,0
1627492528.58455,0,0
1627492529.688219,0,0
1627492530.792729,0,0
1627492531.899412,0,0
1627492532.995904,0,0
1627492534.106288,0,0
1627492535.21015,0,0
1627492536.314073,0,0
1627492537.418916,0,0
1627492538.523159,0,0
1627492539.621675,0,0
1627492540.731674,0,0
1627492541.83591,0,0
1627492542.940205,0,0
1627492544.04432,0,0
1627492545.14263,0,0
1627492546.249499,0,0
1627492547.357103,0,0
1627492548.46108,0,0
1627492549.565964,0,0
1627492550.669456,0,0
1627492551.77368,0,0
1627492552.877761,0,0
1627492553.982106,0,0
1627492555.086149,0,0
1627492556.191054,0,0
1627492557.289135,0,0
1627492558.393528,0,0
1627492559.504136,0,0
1627492560.608656,0,0
1627492561.712639,0,0
1627492562.816642,0,0
1627492563.920786,0,0
1627492565.025042,0,0
1627492566.129035,0,0
1627492567.233706,0,0
1627492568.337802,0,0
1627492569.442821,0,0
1627492570.540435,0,0
1627492571.644779,0,0
1627492572.755646,0,0
1627492573.859257,0,0
1627492574.963669,0,0
1627492576.067933,0,0
1627492577.171952,0,0
1627492578.275902,0,0
1627492579.380774,0,0
1627492580.484722,0,0
1627492581.589451,0,0
1627492582.688289,0,0
1627492583.799173,0,0
1627492584.903115,0,0
1627492586.007262,0,0
1627492587.11277,0,0
1627492588.215066,0,0
1627492589.319199,0,0
1627492590.423367,0,0
1627492591.527409,0,0
1627492592.631603,0,0
1627492593.741636,0,0
1627492594.84133,0,0
1627492595.938772,0,0
1627492597.04909,0,0
1627492598.153263,0,0
1627492599.257507,0,0
1627492600.361777,0,0
1627492601.46585,0,0
1627492602.570051,0,0
1627492603.674678,0,0
1627492604.778936,0,0
1627492605.882698,0,0
1627492606.98098,0,0
1627492608.090903,0,0
1627492609.198768,0,0
1627492610.300422,0,0
1627492611.404095,0,0
1627492612.508139,0,0
1627492613.61267,0,0
1627492614.71604,0,0
1627492615.819966,0,0
1627492616.924616,0,0
1627492618.028762,0,0
1627492619.127137,0,0
1627492620.237096,0,0
1627492621.341273,0,0
1627492622.448831,0,0
1627492623.550429,0,0
1627492624.654999,0,0
1627492625.758897,0,0
1627492626.863303,0,0
1627492627.967809,0,0
1627492629.07196,0,0
1627492630.176294,0,0
1627492632.384029,0,0
1627492633.488305,0,0
1627492634.592393,0,0
1627492635.698634,0,0
1627492636.801216,0,0
1627492637.90576,0,0
1627492639.010211,0,0
1627492640.114245,0,0
1627492641.2185,0,0
1627492642.322418,0,0
1627492643.420309,0,0
1627492644.524913,0,0
1627492645.634836,0,0
1627492646.739441,0,0
1627492647.844172,0,0
1627492648.948692,0,0
1627492650.052707,0,0
1627492651.157148,0,0
1627492652.261101,0,0
1627492653.364963,0,0
1627492654.469149,0,0
1627492655.571194,0,0
1627492656.677488,0,0
1627492657.78227,0,0
1627492658.88624,0,0
1627492659.990845,0,0
1627492661.098572,0,0
1627492662.199136,0,0
1627492663.304,0,0
1627492664.408538,0,0
1627492665.512237,0,0
1627492666.610365,0,0
1627492667.720002,0,0
1627492668.824372,0,0
1627492669.928735,0,0
1627492671.033585,0,0
1627492672.137722,0,0
1627492673.241937,0,0
1627492674.348368,0,0
1627492675.450942,0,0
1627492676.55536,0,0
1627492677.658813,0,0
1627492678.763128,0,0
1627492679.867629,0,0
1627492680.972711,0,0
1627492682.076952,0,0
1627492683.181408,0,0
1627492684.285459,0,0
1627492685.389789,0,0
1627492686.499212,0,0
1627492687.5986,0,0
1627492688.703206,0,0
1627492689.808139,0,0
1627492690.911824,0,0
1627492692.015546,0,0
1627492693.119734,0,0
1627492694.224154,0,0
1627492695.328623,0,0
1627492696.432736,0,0
1627492697.537584,0,0
1627492698.641756,0,0
1627492699.748059,0,0
1627492700.850029,0,0
1627492701.954586,0,0
1627492703.05857,0,0
1627492704.162632,0,0
1627492705.261031,0,0
1627492706.371357,0,0
1627492707.475644,0,0
1627492708.579843,0,0
1627492709.684033,0,0
1627492710.788189,0,0
1627492711.892169,0,0
1627492712.999062,0,0
1627492714.099277,0,0
1627492715.205513,0,0
1627492716.303795,0,0
1627492717.413904,0,0
1627492718.517791,0,0
1627492719.622127,0,0
1627492720.726324,0,0
1627492721.830768,0,0
1627492722.934724,0,0
1627492724.039538,0,0
1627492725.137617,0,0
1627492726.248185,0,0
1627492727.354859,0,0
1627492728.456853,0,0
1627492729.560869,0,0
1627492730.665008,0,0
1627492731.769002,0,0
1627492732.873207,0,0
1627492733.977547,0,0
1627492735.081578,0,0
1627492736.185897,0,0
1627492737.289924,0,0
1627492738.388516,0,0
1627492739.499312,0,0
1627492740.603586,0,0
1627492741.707671,0,0
1627492742.811731,0,0
1627492743.915646,0,0
1627492745.020073,0,0
1627492746.124702,0,0
1627492747.228635,0,0
1627492748.333951,0,0
1627492749.437813,0,0
1627492750.536115,0,0
1627492751.647936,0,0
1627492752.750387,0,0
1627492753.854305,0,0
1627492754.958411,0,0
1627492756.06275,0,0
1627492757.167054,0,0
1627492758.271466,0,0
1627492759.375923,0,0
1627492760.47994,0,0
1627492761.58531,0,0
1627492762.682969,0,0
1627492763.793286,0,0
1627492764.897632,0,0
1627492766.001517,0,0
1627492767.106075,0,0
1627492768.210217,0,0
1627492769.314766,0,0
1627492770.418837,0,0
1627492771.523181,0,0
1627492772.6274,0,0
1627492773.72553,0,0
1627492774.835789,0,0
1627492775.940035,0,0
1627492777.04758,0,0
1627492778.148322,0,0
1627492779.252515,0,0
1627492780.357229,0,0
1627492781.461191,0,0
1627492782.565654,0,0
1627492783.670029,0,0
1627492784.774691,0,0
1627492785.873486,0,0
1627492786.983295,0,0
1627492788.087076,0,0
1627492789.191672,0,0
1627492790.297443,0,0
1627492791.400079,0,0
1627492792.505115,0,0
1627492793.608326,0,0
1627492794.712907,0,0
1627492795.817151,0,0
1627492796.922322,0,0
1627492798.019337,0,0
1627492799.130671,0,0
1627492800.233863,0,0
1627492801.337843,0,0
1627492802.442596,0,0
1627492803.547521,0,0
1627492804.65214,0,0
1627492805.7557,0,0
1627492806.859356,0,0
1627492807.963785,0,0
1627492809.068221,0,0
1627492810.166789,0,0
1627492811.276918,0,0
1627492812.381687,0,0
1627492813.486159,0,0
1627492814.590391,0,0
1627492815.697168,0,0
1627492816.79876,0,0
1627492817.903026,0,0
1627492819.007275,0,0
1627492820.111213,0,0
1627492821.217406,0,0
1627492822.313707,0,0
1627492823.425796,0,0
1627492824.528652,0,0
1627492825.632985,0,0
1627492826.736726,0,0
1627492827.835092,0,0
1627492828.947,0,0
1627492830.049339,0,0
1627492831.153719,0,0
1627492832.257858,0,0
1627492833.36336,0,0
1627492834.467724,0,0
1627492835.572797,0,0
1627492836.676128,0,0
1627492837.780271,0,0
1627492838.878698,0,0
1627492839.988977,0,0
1627492841.096936,0,0
1627492842.197599,0,0
1627492843.301395,0,0
1627492844.406325,0,0
1627492845.510397,0,0
1627492846.615344,0,0
1627492847.718922,0,0
1627492848.823057,0,0
1627492849.927315,0,0
1627492851.031853,0,0
1627492852.135493,0,0
1627492853.239978,0,0
1627492854.346781,0,0
1627492855.448602,0,0
1627492856.552951,0,0
1627492857.651175,0,0
1627492858.761188,0,0
1627492859.866146,0,0
1627492860.969924,0,0
1627492862.074246,0,0
1627492863.178743,0,0
1627492864.282772,0,0
1627492865.387021,0,0
1627492866.491273,0,0
1627492867.596901,0,0
1627492868.702977,0,0
1627492869.798948,0,0
1627492870.909222,0,0
1627492872.013572,0,0
1627492873.117318,0,0
1627492874.221759,0,0
1627492875.325439,0,0
1627492876.430213,0,0
1627492877.534581,0,0
1627492878.638115,0,0
1627492879.742526,0,0
1627492880.847265,0,0
1627492881.951543,0,0
1627492883.055735,0,0
1627492884.160008,0,0
1627492885.263792,0,0
1627492886.368406,0,0
1627492887.472389,0,0
1627492888.576651,0,0
1627492889.680823,0,0
1627492890.78535,0,0
1627492891.890072,0,0
1627492892.988019,0,0
1627492894.098256,0,0
1627492895.203474,0,0
1627492896.306922,0,0
1627492897.411083,0,0
1627492898.515162,0,0
1627492899.620715,0,0
1627492900.724037,0,0
1627492901.828357,0,0
1627492902.933056,0,0
1627492904.03729,0,0
1627492905.141183,0,0
1627492906.246358,0,0
1627492907.350348,0,0
1627492908.454168,0,0
1627492909.557971,0,0
1627492910.662721,0,0
1627492911.766934,0,0
1627492912.870876,0,0
1627492913.975149,0,0
1627492915.07981,0,0
1627492916.183965,0,0
1627492917.288598,0,0
1627492918.3965,0,0
1627492919.496939,0,0
1627492920.601653,0,0
1627492921.705354,0,0
1627492922.809673,0,0
1627492923.913753,0,0
1627492925.017976,0,0
1627492926.122504,0,0
1627492928.332931,0,0
1627492929.429318,0,0
1627492930.539695,0,0
1627492931.646365,0,0
1627492933.852287,0,0
1627492934.956613,0,0
1627492936.060719,0,0
1627492937.166599,0,0
1627492938.269479,0,0
1627492939.373892,0,0
1627492940.477823,0,0
1627492941.583073,0,0
1627492942.686868,0,0
1627492943.791118,0,0
1627492944.896206,0,0
1627492945.999409,0,0
1627492947.103859,0,0
1627492948.207877,0,0
1627492949.312412,0,0
1627492950.41028,0,0
1627492951.519947,0,0
1627492952.618356,0,0
1627492953.723033,0,0
1627492954.83276,0,0
1627492955.937242,0,0
1627492957.041718,0,0
1627492958.146103,0,0
1627492959.250131,0,0
1627492960.354729,0,0
1627492961.460764,0,0
1627492962.563213,0,0
1627492963.666829,0,0
1627492964.771189,0,0
1627492965.869672,0,0
1627492966.980068,0,0
1627492968.084256,0,0
1627492969.188241,0,0
1627492970.295943,0,0
1627492971.398005,0,0
1627492972.502682,0,0
1627492974.706132,0,0
1627492975.814532,0,0
1627492976.912923,0,0
1627492978.021752,0,0
1627492979.126629,0,0
1627492980.231056,0,0
1627492981.335686,0,0
1627492982.439528,0,0
1627492983.545955,0,0
1627492984.648924,0,0
1627492985.753925,0,0
1627492986.857231,0,0
1627492987.961634,0,0
1627492989.066025,0,0
1627492990.170488,0,0
1627492991.274648,0,0
1627492992.378717,0,0
1627492993.483265,0,0
1627492994.587188,0,0
1627492995.695718,0,0
1627492996.795811,0,0
1627492997.900367,0,0
1627492999.004643,0,0
1627493000.111425,0,0
1627493001.20825,0,0
1627493002.318779,0,0
1627493003.422967,0,0
1627493004.527208,0,0
1627493005.63118,0,0
1627493006.735718,0,0
1627493007.839623,0,0
1627493008.945647,0,0
1627493010.048494,0,0
1627493011.15298,0,0
1627493012.25851,0,0
1627493013.361305,0,0
1627493014.465979,0,0
1627493015.570156,0,0
1627493016.674557,0,0
1627493017.778978,0,0
1627493018.88314,0,0
1627493019.987514,0,0
1627493021.095613,0,0
1627493022.196628,0,0
1627493023.301634,0,0
1627493024.407266,0,0
1627493025.509025,0,0
1627493026.608264,0,0
1627493027.718341,0,0
1627493028.822754,0,0
1627493029.926871,0,0
1627493031.030989,0,0
1627493032.135422,0,0
1627493033.239294,0,0
1627493034.345359,0,0
1627493035.449485,0,0
1627493036.554161,0,0
1627493037.656546,0,0
1627493038.761126,0,0
1627493039.865433,0,0
1627493040.969267,0,0
1627493042.073643,0,0
1627493043.178025,0,0
1627493044.282383,0,0
1627493045.386824,0,0
1627493046.495353,0,0
1627493047.595379,0,0
1627493048.700385,0,0
1627493049.797957,0,0
1627493050.909123,0,0
1627493052.0128,0,0
1627493053.117202,0,0
1627493054.221194,0,0
1627493055.326014,0,0
1627493056.430514,0,0
1627493057.534997,0,0
1627493058.638793,0,0
1627493059.745258,0,0
1627493060.845333,0,0
1627493061.946059,0,0
1627493063.056016,0,0
1627493064.160423,0,0
1627493065.264955,0,0
1627493066.369842,0,0
1627493067.473874,0,0
1627493068.578096,0,0
1627493069.68283,0,0
1627493070.786966,0,0
1627493071.890815,0,0
1627493072.995299,0,0
1627493074.095149,0,0
1627493075.203832,0,0
1627493076.308665,0,0
1627493077.412168,0,0
1627493078.516484,0,0
1627493079.620547,0,0
1627493080.724613,0,0
1627493081.829042,0,0
1627493082.933043,0,0
1627493084.037908,0,0
1627493085.145057,0,0
1627493086.246418,0,0
1627493087.34506,0,0
1627493088.454857,0,0
1627493089.559578,0,0
1627493090.663373,0,0
1627493091.767826,0,0
1627493092.871942,0,0
1627493093.976155,0,0
1627493095.080291,0,0
1627493096.184641,0,0
1627493097.289503,0,0
1627493098.395041,0,0
1627493099.497757,0,0
1627493100.602092,0,0
1627493101.706358,0,0
1627493102.810777,0,0
1627493103.914824,0,0
1627493105.019391,0,0
1627493106.123434,0,0
1627493107.228043,0,0
1627493108.332259,0,0
1627493109.436477,0,0
1627493110.535832,0,0
1627493111.645983,0,0
1627493112.750783,0,0
1627493113.854345,0,0
1627493114.958692,0,0
1627493116.063404,0,0
1627493117.167592,0,0
1627493118.272204,0,0
1627493119.376236,0,0
1627493120.48124,0,0
1627493121.584939,0,0
1627493122.690927,0,0
1627493123.795064,0,0
1627493124.897824,0,0
1627493126.002165,0,0
1627493127.106977,0,0
1627493128.211549,0,0
1627493129.315465,0,0
1627493130.419594,0,0
1627493131.52356,0,0
1627493132.62797,0,0
1627493133.732561,0,0
1627493134.836894,0,0
1627493135.934801,0,0
1627493137.044897,0,0
1627493138.149228,0,0
1627493139.253684,0,0
1627493140.358003,0,0
1627493141.462107,0,0
1627493143.670722,0,0
1627493144.774911,0,0
1627493145.879135,0,0
1627493146.985296,0,0
1627493148.08765,0,0
1627493149.194679,0,0
1627493150.296192,0,0
1627493151.400937,0,0
1627493152.504739,0,0
1627493153.609749,0,0
1627493154.714047,0,0
1627493155.818203,0,0
1627493156.922026,0,0
1627493158.02637,0,0
1627493159.131198,0,0
1627493160.229592,0,0
1627493161.339656,0,0
1627493162.438143,0,0
1627493163.548783,0,0
1627493164.652535,0,0
1627493165.756903,0,0
1627493166.861169,0,0
1627493167.965852,0,0
1627493169.070114,0,0
1627493170.174718,0,0
1627493171.279598,0,0
1627493172.37696,0,0
1627493173.48151,0,0
1627493174.594361,0,0
1627493175.696034,0,0
1627493176.800632,0,0
1627493177.904916,0,0
1627493179.010768,0,0
1627493180.114111,0,0
1627493181.218525,0,0
1627493182.322058,0,0
1627493183.42049,0,0
1627493184.525016,0,0
1627493185.636568,0,0
1627493186.738896,0,0
1627493187.844402,0,0
1627493188.947929,0,0
1627493190.052562,0,0
1627493191.156418,0,0
1627493192.260809,0,0
1627493193.364873,0,0
1627493194.469421,0,0
1627493195.581938,0,0
1627493196.677788,0,0
1627493197.782202,0,0
1627493198.886548,0,0
1627493199.99429,0,0
1627493201.095274,0,0
1627493202.200145,0,0
1627493203.303815,0,0
1627493204.410021,0,0
1627493205.512294,0,0
1627493206.616691,0,0
1627493207.721017,0,0
1627493208.818975,0,0
1627493209.92351,0,0
1627493211.033619,0,0
1627493212.137761,0,0
1627493213.244091,0,0
1627493214.346536,0,0
1627493215.450922,0,0
1627493216.554735,0,0
1627493217.659049,0,0
1627493218.763164,0,0
1627493219.867469,0,0
1627493220.97143,0,0
1627493222.076361,0,0
1627493223.182049,0,0
1627493224.284831,0,0
1627493225.389183,0,0
1627493226.494089,0,0
1627493227.59778,0,0
1627493228.702483,0,0
1627493260.56939,0,0
1627493261.680479,0,0
1627493262.785445,0,0
1627493263.889313,0,0
1627493264.093737,0,0
1627493265.193645,0,0
1627493266.301779,0,0
1627493267.4062,0,0
1627493268.510952,0,0
1627493269.609948,0,0
1627493270.71342,0,0
1627493271.823169,0,0
1627493272.927409,0,0
1627493274.031516,0,0
1627493275.135609,0,0
1627493276.243521,0,0
