0e3,0,100
0e3,0,100
0e3,0,99
5750000e3,0,100
5750000e3,1,99
5750000e3,2,100
5750000e3,3,100
5750000e3,4,99
5750000e3,5,100
5750000e3,6,100
5750000e3,7,99
5750000e3,8,99
5750000e3,9,100
5750000e3,10,100
5750000e3,11,100
5750000e3,12,98
5750000e3,13,100
5750000e3,14,100
5750000e3,15,99
5750000e3,16,100
5750000e3,17,99
5750000e3,18,100
5750000e3,19,100
5750000e3,20,99
5750000e3,21,99
5750000e3,22,100
5750000e3,23,99
5750000e3,24,98
5750000e3,25,100
5750000e3,26,100
5750000e3,27,100
5750000e3,28,99
5750000e3,29,100
5750000e3,30,100
5750000e3,31,100
5750000e3,32,99
5750000e3,33,100
5750000e3,34,100
5750000e3,35,100
5750000e3,36,99
5750000e3,37,100
5750000e3,38,100
5750000e3,39,99
5750000e3,40,100
5750000e3,41,100
5750000e3,42,100
5750000e3,43,100
5750000e3,44,99
5750000e3,45,100
5750000e3,46,100
5750000e3,47,100
5750000e3,48,100
5750000e3,49,100
5750000e3,50,100
5750000e3,51,100
5750000e3,52,100
5750000e3,53,100
5750000e3,54,99
5750000e3,55,100
5750000e3,56,99
5750000e3,57,100
5750000e3,58,97
5750000e3,59,100
5750000e3,60,99
5750000e3,61,100
5750000e3,62,100
5750000e3,63,100
5750000e3,64,100
5750000e3,65,100
5750000e3,66,100
5750000e3,67,100
5750000e3,68,100
5750000e3,69,100
5750000e3,70,100
5750000e3,71,93
5750000e3,72,100
5750000e3,73,99
5750000e3,74,100
5750000e3,75,99
5750000e3,76,100
5750000e3,77,100
5750000e3,78,99
5750000e3,79,100
5750000e3,80,100
5750000e3,81,100
5750000e3,82,100
5750000e3,83,100
5750000e3,84,99
5750000e3,85,100
5750000e3,86,92
5750000e3,87,86
5750000e3,88,88
5750000e3,89,88
