Frequency,Gain,PDR
5845000e3,0.0,998
5845000e3,0.25,998
5845000e3,0.5,999
5845000e3,0.75,999
5845000e3,1.0,1000
5845000e3,1.25,998
5845000e3,1.5,996
5845000e3,1.75,999
5845000e3,2.0,996
5845000e3,2.25,995
5845000e3,2.5,998
5845000e3,2.75,997
5845000e3,3.0,997
5845000e3,3.25,998
5845000e3,3.5,996
5845000e3,3.75,999
5845000e3,4.0,998
5845000e3,4.25,999
5845000e3,4.5,999
5845000e3,4.75,997
5845000e3,5.0,996
5845000e3,5.25,998
5845000e3,5.5,999
5845000e3,5.75,997
5845000e3,6.0,998
5845000e3,6.25,997
5845000e3,6.5,999
5845000e3,6.75,996
5845000e3,7.0,998
5845000e3,7.25,998
5845000e3,7.5,999
5845000e3,7.75,999
5845000e3,8.0,997
5845000e3,8.25,999
5845000e3,8.5,999
5845000e3,8.75,993
5845000e3,9.0,1000
5845000e3,9.25,996
5845000e3,9.5,997
5845000e3,9.75,998
5845000e3,10.0,997
5845000e3,10.25,1000
5845000e3,10.5,996
5845000e3,10.75,1000
5845000e3,11.0,997
5845000e3,11.25,1000
5845000e3,11.5,998
5845000e3,11.75,998
5845000e3,12.0,1000
5845000e3,12.25,999
5845000e3,12.5,994
5845000e3,12.75,998
5845000e3,13.0,999
5845000e3,13.25,994
5845000e3,13.5,1000
5845000e3,13.75,999
5845000e3,14.0,999
5845000e3,14.25,995
5845000e3,14.5,998
5845000e3,14.75,996
5845000e3,15.0,999
5845000e3,15.25,1000
5845000e3,15.5,998
5845000e3,15.75,999
5845000e3,16.0,997
5845000e3,16.25,998
5845000e3,16.5,999
5845000e3,16.75,998
5845000e3,17.0,999
5845000e3,17.25,999
5845000e3,17.5,992
5845000e3,17.75,998
5845000e3,18.0,1000
5845000e3,18.25,998
5845000e3,18.5,995
5845000e3,18.75,1000
5845000e3,19.0,999
5845000e3,19.25,998
5845000e3,19.5,999
5845000e3,19.75,997
5845000e3,20.0,995
5845000e3,20.25,1000
5845000e3,20.5,1000
5845000e3,20.75,997
5845000e3,21.0,1000
5845000e3,21.25,998
5845000e3,21.5,997
5845000e3,21.75,998
5845000e3,22.0,999
5845000e3,22.25,995
5845000e3,22.5,999
5845000e3,22.75,999
5845000e3,23.0,998
5845000e3,23.25,998
5845000e3,23.5,997
5845000e3,23.75,998
5845000e3,24.0,998
5845000e3,24.25,995
5845000e3,24.5,997
5845000e3,24.75,996
5845000e3,25.0,999
5845000e3,25.25,996
5845000e3,25.5,995
5845000e3,25.75,997
5845000e3,26.0,998
5845000e3,26.25,999
5845000e3,26.5,998
5845000e3,26.75,998
5845000e3,27.0,999
5845000e3,27.25,997
5845000e3,27.5,998
5845000e3,27.75,996
5845000e3,28.0,999
5845000e3,28.25,999
5845000e3,28.5,997
5845000e3,28.75,998
5845000e3,29.0,998
5845000e3,29.25,998
5845000e3,29.5,996
5845000e3,29.75,996
5845000e3,30.0,996
5845000e3,30.25,996
5845000e3,30.5,999
5845000e3,30.75,990
5845000e3,31.0,1000
5845000e3,31.25,998
5845000e3,31.5,990
5845000e3,31.75,994
5845000e3,32.0,998
5845000e3,32.25,999
5845000e3,32.5,1000
5845000e3,32.75,985
5845000e3,33.0,999
5845000e3,33.25,998
5845000e3,33.5,997
5845000e3,33.75,997
5845000e3,34.0,1000
5845000e3,34.25,999
5845000e3,34.5,999
5845000e3,34.75,998
5845000e3,35.0,998
5845000e3,35.25,1000
5845000e3,35.5,998
5845000e3,35.75,999
5845000e3,36.0,997
5845000e3,36.25,999
5845000e3,36.5,1000
5845000e3,36.75,998
5845000e3,37.0,997
5845000e3,37.25,984
5845000e3,37.5,999
5845000e3,37.75,993
5845000e3,38.0,999
5845000e3,38.25,994
5845000e3,38.5,999
5845000e3,38.75,995
5845000e3,39.0,997
5845000e3,39.25,1000
5845000e3,39.5,999
5845000e3,39.75,997
5845000e3,40.0,999
5845000e3,40.25,989
5845000e3,40.5,998
5845000e3,40.75,998
5845000e3,41.0,999
5845000e3,41.25,997
5845000e3,41.5,998
5845000e3,41.75,997
5845000e3,42.0,998
5845000e3,42.25,991
5845000e3,42.5,998
5845000e3,42.75,998
5845000e3,43.0,997
5845000e3,43.25,999
5845000e3,43.5,999
5845000e3,43.75,999
5845000e3,44.0,998
5845000e3,44.25,981
5845000e3,44.5,1000
5845000e3,44.75,1000
5845000e3,45.0,998
5845000e3,45.25,999
5845000e3,45.5,992
5845000e3,45.75,999
5845000e3,46.0,999
5845000e3,46.25,995
5845000e3,46.5,996
5845000e3,46.75,999
5845000e3,47.0,998
5845000e3,47.25,997
5845000e3,47.5,989
5845000e3,47.75,998
5845000e3,48.0,998
5845000e3,48.25,994
5845000e3,48.5,998
5845000e3,48.75,999
5845000e3,49.0,990
5845000e3,49.25,994
5845000e3,49.5,993
5845000e3,49.75,998
5845000e3,50.0,1000
5845000e3,50.25,999
5845000e3,50.5,1000
5845000e3,50.75,997
5845000e3,51.0,997
5845000e3,51.25,999
5845000e3,51.5,998
5845000e3,51.75,990
5845000e3,52.0,996
5845000e3,52.25,999
5845000e3,52.5,1000
5845000e3,52.75,998
5845000e3,53.0,997
5845000e3,53.25,985
5845000e3,53.5,999
5845000e3,53.75,1000
5845000e3,54.0,999
5845000e3,54.25,999
5845000e3,54.5,986
5845000e3,54.75,996
5845000e3,55.0,997
5845000e3,55.25,1000
5845000e3,55.5,997
5845000e3,55.75,996
5845000e3,56.0,999
5845000e3,56.25,998
5845000e3,56.5,998
5845000e3,56.75,998
5845000e3,57.0,997
5845000e3,57.25,999
5845000e3,57.5,1000
5845000e3,57.75,996
5845000e3,58.0,999
5845000e3,58.25,998
5845000e3,58.5,996
5845000e3,58.75,999
5845000e3,59.0,997
5845000e3,59.25,999
5845000e3,59.5,998
5845000e3,59.75,999
5845000e3,60.0,1000
5845000e3,60.25,999
5845000e3,60.5,998
5845000e3,60.75,997
5845000e3,61.0,999
5845000e3,61.25,997
5845000e3,61.5,1000
5845000e3,61.75,998
5845000e3,62.0,999
5845000e3,62.25,996
5845000e3,62.5,998
5845000e3,62.75,1000
5845000e3,63.0,999
5845000e3,63.25,999
5845000e3,63.5,1000
5845000e3,63.75,998
5845000e3,64.0,1000
5845000e3,64.25,1000
5845000e3,64.5,1000
5845000e3,64.75,1000
5845000e3,65.0,999
5845000e3,65.25,1000
5845000e3,65.5,1000
5845000e3,65.75,1000
5845000e3,66.0,1000
5845000e3,66.25,998
5845000e3,66.5,998
5845000e3,66.75,986
5845000e3,67.0,999
5845000e3,67.25,1000
5845000e3,67.5,990
5845000e3,67.75,1000
5845000e3,68.0,1000
5845000e3,68.25,1000
5845000e3,68.5,998
5845000e3,68.75,1000
5845000e3,69.0,999
5845000e3,69.25,999
5845000e3,69.5,999
5845000e3,69.75,999
5845000e3,70.0,999
5845000e3,70.25,1000
5845000e3,70.5,999
5845000e3,70.75,998
5845000e3,71.0,999
5845000e3,71.25,1000
5845000e3,71.5,998
5845000e3,71.75,1000
5845000e3,72.0,999
5845000e3,72.25,999
5845000e3,72.5,999
5845000e3,72.75,1000
5845000e3,73.0,1000
5845000e3,73.25,996
5845000e3,73.5,999
5845000e3,73.75,1000
5845000e3,74.0,999
5845000e3,74.25,981
5845000e3,74.5,999
5845000e3,74.75,1000
5845000e3,75.0,999
5845000e3,75.25,1000
5845000e3,75.5,999
5845000e3,75.75,1000
5845000e3,76.0,1000
5845000e3,76.25,999
5845000e3,76.5,1000
5845000e3,76.75,1000
5845000e3,77.0,999
5845000e3,77.25,998
5845000e3,77.5,999
5845000e3,77.75,998
5845000e3,78.0,998
5845000e3,78.25,997
5845000e3,78.5,999
5845000e3,78.75,999
5845000e3,79.0,999
5845000e3,79.25,1000
5845000e3,79.5,997
5845000e3,79.75,996
5845000e3,80.0,999
5845000e3,80.25,997
5845000e3,80.5,993
5845000e3,80.75,994
5845000e3,81.0,997
5845000e3,81.25,994
5845000e3,81.5,996
5845000e3,81.75,1000
5845000e3,82.0,999
5845000e3,82.25,999
5845000e3,82.5,995
5845000e3,82.75,995
5845000e3,83.0,999
5845000e3,83.25,995
5845000e3,83.5,998
5845000e3,83.75,998
5845000e3,84.0,1000
5845000e3,84.25,994
5845000e3,84.5,997
5845000e3,84.75,996
5845000e3,85.0,997
5845000e3,85.25,996
5845000e3,85.5,997
5845000e3,85.75,996
5845000e3,86.0,992
5845000e3,86.25,986
5845000e3,86.5,984
5845000e3,86.75,981
5845000e3,87.0,968
5845000e3,87.25,962
5845000e3,87.5,946
5845000e3,87.75,944
5845000e3,88.0,925
5845000e3,88.25,887
5845000e3,88.5,863
5845000e3,88.75,845
5845000e3,89.0,795
