5860000e3,0,98
5860000e3,1,89
5860000e3,2,94
5860000e3,3,94
5860000e3,4,93
5860000e3,5,100
5860000e3,6,99
5860000e3,7,100
5860000e3,8,100
5860000e3,9,99
5860000e3,10,100
5860000e3,11,100
5860000e3,12,100
5860000e3,13,100
5860000e3,14,99
5860000e3,15,100
5860000e3,16,100
5860000e3,17,99
5860000e3,18,100
5860000e3,19,99
5860000e3,20,100
5860000e3,21,100
5860000e3,22,100
5860000e3,23,100
5860000e3,24,100
5860000e3,25,99
5860000e3,26,100
5860000e3,27,99
5860000e3,28,100
5860000e3,29,83
5860000e3,30,100
5860000e3,31,100
5860000e3,32,83
5860000e3,33,96
5860000e3,34,100
5860000e3,35,100
5860000e3,36,99
5860000e3,37,96
5860000e3,38,100
5860000e3,39,99
5860000e3,40,99
5860000e3,41,100
5860000e3,42,100
5860000e3,43,99
5860000e3,44,100
5860000e3,45,100
5860000e3,46,100
5860000e3,47,99
5860000e3,48,100
5860000e3,49,99
5860000e3,50,97
5860000e3,51,83
5860000e3,52,75
5860000e3,53,37
5860000e3,54,40
5860000e3,55,28
5860000e3,56,13
5860000e3,57,9
5860000e3,58,2
5860000e3,59,0
5860000e3,60,0
5860000e3,61,1
5860000e3,62,2
5860000e3,63,2
5860000e3,64,1
5860000e3,65,0
5860000e3,66,2
5860000e3,67,0
5860000e3,68,0
5860000e3,69,1
5860000e3,70,0
5860000e3,71,2
5860000e3,72,2
5860000e3,73,4
5860000e3,74,3
5860000e3,75,1
5860000e3,76,3
5860000e3,77,0
5860000e3,78,0
5860000e3,79,1
5860000e3,80,1
5860000e3,81,0
5860000e3,82,1
5860000e3,83,0
5860000e3,84,1
5860000e3,85,1
5860000e3,86,1
5860000e3,87,1
5860000e3,88,0
5860000e3,89,0
