# Message File Format
Version=0.5
Type=SRM
PSID=0xE0000016
Priority=5
TxMode=ALT
Status=1
TxChannel=SCH
TxInterval=0
Signature=True
Encryption=False
Payload=001D3070EE0F4FB90103806422B88071DC1EE2BA000F700C0C1919403DA9B4044B2517825A88B1BC0FF8594687879E5408D900
