# Message File Format
Version=0.5
Type=SRM
PSID=0xE0000016
Priority=5
TxMode=ALT
Status=1
TxChannel=SCH
TxInterval=0
Signature=True
Encryption=False
Payload=001D3070EE1A2F22810380648C0C8021DC34BCEF000F700C0C1919403DA9B47870051773F448CC98DD380D4687879E5408D900
