# Message File Format
Version=0.5
Type=SRM
PSID=0xE0000016
Priority=5
TxMode=ALT
Status=1
TxChannel=SCH
TxInterval=0
Signature=True
Encryption=False
Payload=001D3073FEA787908103806784B880C7FD4F1AAB000F700C0C1919403DA9B43ECD0517CD8928CDEE4EF8468687879E5408D900
