# Message File Format
Version=0.5
Type=SRM
PSID=0xE0000016
Priority=5
TxMode=ALT
Status=1
TxChannel=SCH
TxInterval=0
Signature=True
Encryption=False
Payload=001D3070EDFF97D781038067F9C080B1DBFF36FE000F700C0C1919403DA9B3A56DA5178E4DE89EC6EC78824687879E5408D900
