# Message File Format
Version=0.5
Type=SRM
PSID=0xE0000016
Priority=5
TxMode=ALT
Status=1
TxChannel=SCH
TxInterval=0
Signature=True
Encryption=False
Payload=001D3071DA43412B0103806F08488053B486B32E000F700C8DCDCD403DA9BC5DF8A5122A20E8657C1E78DA4687879E5408D980
