# Message File Format
Version=0.5
Type=SRM
PSID=0xE0000016
Priority=5
TxMode=ALT
Status=1
TxChannel=SCH
TxInterval=0
Signature=True
Encryption=False
Payload=001D3071D75B187E81038070A40C8013AEB6949B000F700C8DCDCD403DA9BB37E825137039E8A4E11738E70687879E5408D980
