# Message File Format
Version=0.5
Type=SRM
PSID=0x29
Priority=5
TxMode=ALT
Status=1
TxChannel=184
TxInterval=0
Signature=True
Encryption=False
Payload=001D307156D2089381038073BE5C8062ADA417F9000F700D0C99184041A9BA335F05122B19488FBC1A78E74687879E5408D98000
