# Message File Format
Version=0.5
Type=SRM
PSID=0x29
Priority=5
TxMode=ALT
Status=1
TxChannel=184
TxInterval=0
Signature=True
Encryption=False
Payload=001D307294DDA01581038076D43080E529BB84CA000F700C8DCC990041A9BC5CADE512291BA8500E123887C687879E5408D98000
